[gd_scene load_steps=4 format=2]

[ext_resource path="res://resources/images/arrows/Bullet_000.png" type="Texture" id=1]
[ext_resource path="res://scenes/Bullet.gd" type="Script" id=2]

[sub_resource type="CircleShape2D" id=1]
radius = 19.8502

[node name="Bullet" type="KinematicBody2D"]
collision_layer = 4
collision_mask = 18
script = ExtResource( 2 )

[node name="TextureRect" type="TextureRect" parent="."]
margin_right = 40.0
margin_bottom = 43.0
texture = ExtResource( 1 )
__meta__ = {
"_edit_use_anchors_": false
}

[node name="CollisionShape2D" type="CollisionShape2D" parent="."]
position = Vector2( 18.4327, 13.4867 )
shape = SubResource( 1 )
