[gd_scene load_steps=3 format=2]

[ext_resource path="res://resources/images/sprites/Stone.png" type="Texture" id=1]

[sub_resource type="RectangleShape2D" id=1]
extents = Vector2( 88.7782, 89.0865 )

[node name="Stone" type="KinematicBody2D"]
collision_layer = 64

[node name="TextureRect" type="TextureRect" parent="."]
margin_right = 200.0
margin_bottom = 116.0
texture = ExtResource( 1 )
__meta__ = {
"_edit_use_anchors_": false
}

[node name="CollisionShape2D" type="CollisionShape2D" parent="."]
position = Vector2( 91.644, 90.8335 )
shape = SubResource( 1 )
